<?xml version="1.0" encoding="UTF-8"?>
<svg width="1160px" height="320px" viewBox="40 120 1160 320" xmlns="http://www.w3.org/2000/svg" version="1.1">
  <g fill="none" stroke="#01a4ff" stroke-width="8" stroke-opacity="1" stroke-linejoin="round"
     stroke-linecap="round">
    <path id="logo-t"
          d="M237.113 156.982 L237.113 190.676 173.938 190.676 173.938 384.414 140.244 384.414 140.244 190.676 77.069 190.676 77.069 156.982 Z"/>
    <path id="logo-e"
          d="M203.42 217.631 L321.347 217.631 321.347 251.324 237.113 251.324 237.113 284.175 307.027 284.175 307.027 317.869 237.113 317.869 237.113 350.72 321.347 350.72 321.347 384.414 203.42 384.414 Z"/>
    <path id="logo-c"
          d="M339.036 238.689 L360.094 217.631 462.017 217.631 462.017 251.324 372.729 251.324 372.729 350.72 462.017 350.72 462.017 384.414 360.094 384.414 339.036 363.355 Z"/>
    <path id="logo-h"
          d="M480.549 217.631 L514.242 217.631 514.242 284.175 581.629 284.175 581.629 217.631 615.323 217.631 615.323 384.414 581.629 384.414 581.629 317.869 514.242 317.869 514.242 384.414 480.549 384.414 Z"/>
    <path id="logo-m"
          d="M634.697 217.631 L681.025 217.631 717.246 310.288 752.624 217.631 798.952 217.631 798.952 384.414 765.259 384.414 765.259 264.802 731.565 350.72 702.084 350.72 668.39 264.802 668.39 384.414 634.697 384.414 Z"/>
    <path id="logo-i" d="M820.011 217.631 L853.704 217.631 853.704 384.414 820.011 384.414 Z"/>
    <path id="logo-n"
          d="M874.763 217.631 L908.456 217.631 975.843 329.662 975.843 217.631 1009.537 217.631 1009.537 384.414 975.843 384.414 908.456 272.383 908.456 384.414 874.763 384.414 Z"/>
    <path id="logo-o"
          d="M1027.226 238.689 L1048.284 217.631 1140.942 217.631 1162 238.689 1162 363.355 1140.942 384.414 1048.284 384.414 1027.226 363.355 Z M1128.306 350.72 L1128.306 251.324 1060.919 251.324 1060.919 350.72 Z"/>
  </g>
</svg>
